{
	"info": {
		"_postman_id": "bda539ee-f659-4a65-85bd-ed72bee5e496",
		"name": "Accounting",
		"description": "Accounting api test cases",
		"schema": "https://schema.getpostman.com/json/collection/v2.1.0/collection.json"
	},
	"item": [
		{
			"name": "Client",
			"item": [
				{
					"name": "Get Clients",
					"event": [
						{
							"listen": "test",
							"script": {
								"id": "e575528a-7fac-425d-8d92-51414bcd9255",
								"exec": [
									""
								],
								"type": "text/javascript"
							}
						}
					],
					"request": {
						"method": "GET",
						"header": [],
						"url": {
							"raw": "{{host}}/clients",
							"host": [
								"{{host}}"
							],
							"path": [
								"clients"
							]
						}
					},
					"response": []
				},
				{
					"name": "Get Client",
					"request": {
						"method": "GET",
						"header": [],
						"url": {
							"raw": "{{host}}/clients/{{clientId}}",
							"host": [
								"{{host}}"
							],
							"path": [
								"clients",
								"{{clientId}}"
							]
						}
					},
					"response": []
				},
				{
					"name": "Create Client",
					"request": {
						"method": "POST",
						"header": [
							{
								"key": "Content-Type",
								"name": "Content-Type",
								"value": "application/json",
								"type": "text"
							}
						],
						"body": {
							"mode": "raw",
							"raw": "{\n    \"name\": \"John\",\n    \"surname\": \"DOE\",\n    \"primaryAddress\": {\n        \"addressLine1\": \"Baker street\",\n        \"addressLine2\": \"Compton\",\n        \"city\": \"LA\",\n        \"country\": \"US\"\n    },\n    \"secondaryAddress\": {\n        \"addressLine1\": \"lara cadddesi\",\n        \"addressLine2\": \"Muratpasa\",\n        \"city\": \"Antalya\",\n        \"country\": \"TR\"\n    }\n}",
							"options": {
								"raw": {
									"language": "json"
								}
							}
						},
						"url": {
							"raw": "{{host}}/clients",
							"host": [
								"{{host}}"
							],
							"path": [
								"clients"
							]
						}
					},
					"response": []
				},
				{
					"name": "Delete Client",
					"request": {
						"method": "DELETE",
						"header": [
							{
								"key": "Content-Type",
								"name": "Content-Type",
								"type": "text",
								"value": "application/json"
							}
						],
						"url": {
							"raw": "{{host}}/clients/{{clientId}}",
							"host": [
								"{{host}}"
							],
							"path": [
								"clients",
								"{{clientId}}"
							]
						}
					},
					"response": []
				}
			],
			"protocolProfileBehavior": {}
		},
		{
			"name": "Account",
			"item": [
				{
					"name": "Get Client Accounts",
					"request": {
						"method": "GET",
						"header": [],
						"url": {
							"raw": "{{host}}/clients/{{clientId}}/accounts",
							"host": [
								"{{host}}"
							],
							"path": [
								"clients",
								"{{clientId}}",
								"accounts"
							]
						}
					},
					"response": []
				},
				{
					"name": "Create Client Account",
					"request": {
						"method": "POST",
						"header": [
							{
								"key": "Content-Type",
								"name": "Content-Type",
								"value": "application/json",
								"type": "text"
							}
						],
						"body": {
							"mode": "raw",
							"raw": "{\n    \"balance\": 0,\n    \"accountType\": \"CURRENT\",\n    \"balanceStatus\": \"DEBIT\"\n}",
							"options": {
								"raw": {
									"language": "json"
								}
							}
						},
						"url": {
							"raw": "{{host}}/clients/{{clientId}}/accounts",
							"host": [
								"{{host}}"
							],
							"path": [
								"clients",
								"{{clientId}}",
								"accounts"
							]
						}
					},
					"response": []
				}
			],
			"protocolProfileBehavior": {}
		},
		{
			"name": "Transaction",
			"item": [
				{
					"name": "Get Account Transactions",
					"request": {
						"method": "GET",
						"header": [],
						"url": {
							"raw": "{{host}}/clients/{{clientId}}/accounts/{{accountId}}/transactions",
							"host": [
								"{{host}}"
							],
							"path": [
								"clients",
								"{{clientId}}",
								"accounts",
								"{{accountId}}",
								"transactions"
							]
						}
					},
					"response": []
				},
				{
					"name": "Make Transfer",
					"request": {
						"method": "POST",
						"header": [
							{
								"key": "Content-Type",
								"name": "Content-Type",
								"value": "application/json",
								"type": "text"
							}
						],
						"body": {
							"mode": "raw",
							"raw": "{\n\t\"senderAccountId\": \"8\",\n\t\"receiverAccountId\": \"7\",\n\t\"amount\": 5.999577,\n\t\"message\": \"test transfer message\"\n}",
							"options": {
								"raw": {
									"language": "json"
								}
							}
						},
						"url": {
							"raw": "{{host}}/transactions",
							"host": [
								"{{host}}"
							],
							"path": [
								"transactions"
							]
						}
					},
					"response": []
				}
			],
			"protocolProfileBehavior": {}
		},
		{
			"name": "Test Case 1",
			"item": [
				{
					"name": "Create Sender",
					"event": [
						{
							"listen": "test",
							"script": {
								"id": "e2e11d30-42c4-483b-84ab-dcf43207afdd",
								"exec": [
									"pm.test(\"Status code is 200\", function () {",
									"    pm.response.to.have.status(200);",
									"});",
									"",
									"var jsonData = pm.response.json();",
									"pm.environment.set(\"client_one_id\", jsonData.id);"
								],
								"type": "text/javascript"
							}
						}
					],
					"request": {
						"method": "POST",
						"header": [
							{
								"key": "Content-Type",
								"name": "Content-Type",
								"value": "application/json",
								"type": "text"
							}
						],
						"body": {
							"mode": "raw",
							"raw": "{\n    \"name\": \"John\",\n    \"surname\": \"DOE\",\n    \"primaryAddress\": {\n        \"addressLine1\": \"Baker street\",\n        \"addressLine2\": \"Compton\",\n        \"city\": \"LA\",\n        \"country\": \"US\"\n    }\n}",
							"options": {
								"raw": {
									"language": "json"
								}
							}
						},
						"url": {
							"raw": "{{host}}/clients",
							"host": [
								"{{host}}"
							],
							"path": [
								"clients"
							]
						}
					},
					"response": []
				},
				{
					"name": "Create Receiver",
					"event": [
						{
							"listen": "test",
							"script": {
								"id": "5849ccba-f285-4acd-97d0-a36908ff3f31",
								"exec": [
									"pm.test(\"Status code is 200\", function () {",
									"    pm.response.to.have.status(200);",
									"});",
									"",
									"var jsonData = pm.response.json();",
									"pm.environment.set(\"client_two_id\", jsonData.id);"
								],
								"type": "text/javascript"
							}
						}
					],
					"request": {
						"method": "POST",
						"header": [
							{
								"key": "Content-Type",
								"name": "Content-Type",
								"value": "application/json",
								"type": "text"
							}
						],
						"body": {
							"mode": "raw",
							"raw": "{\n    \"name\": \"Jane\",\n    \"surname\": \"Wilson\",\n    \"primaryAddress\": {\n        \"addressLine1\": \"Baker street\",\n        \"addressLine2\": \"Compton\",\n        \"city\": \"LA\",\n        \"country\": \"US\"\n    },\n    \"secondaryAddress\": {\n        \"addressLine1\": \"lara cadddesi\",\n        \"addressLine2\": \"Muratpasa\",\n        \"city\": \"Antalya\",\n        \"country\": \"TR\"\n    }\n}",
							"options": {
								"raw": {
									"language": "json"
								}
							}
						},
						"url": {
							"raw": "{{host}}/clients",
							"host": [
								"{{host}}"
							],
							"path": [
								"clients"
							]
						}
					},
					"response": []
				},
				{
					"name": "Get Client List",
					"event": [
						{
							"listen": "test",
							"script": {
								"id": "0d3ac312-9907-4da0-8724-e6baf9891aa1",
								"exec": [
									"pm.test(\"Status code is 200\", function () {",
									"    pm.response.to.have.status(200);",
									"    pm.response.to.be.withBody;",
									"    pm.expect(pm.response.json.length).to.be.above(0);",
									"});"
								],
								"type": "text/javascript"
							}
						}
					],
					"request": {
						"method": "GET",
						"header": [
							{
								"key": "Content-Type",
								"name": "Content-Type",
								"value": "application/json",
								"type": "text"
							}
						],
						"url": {
							"raw": "{{host}}/clients",
							"host": [
								"{{host}}"
							],
							"path": [
								"clients"
							]
						}
					},
					"response": []
				},
				{
					"name": "Create Account for sender",
					"event": [
						{
							"listen": "test",
							"script": {
								"id": "93862d10-39d8-485b-bd82-430910923274",
								"exec": [
									"pm.test(\"Status code is 200\", function () {",
									"    pm.response.to.have.status(200);",
									"});",
									"",
									"var jsonData = pm.response.json();",
									"pm.environment.set(\"sender_account_id\", jsonData.id);"
								],
								"type": "text/javascript"
							}
						}
					],
					"request": {
						"method": "POST",
						"header": [
							{
								"key": "Content-Type",
								"name": "Content-Type",
								"value": "application/json",
								"type": "text"
							}
						],
						"body": {
							"mode": "raw",
							"raw": "{\n    \"accountType\": \"CURRENT\",\n    \"balanceStatus\": \"DEBIT\"\n}",
							"options": {
								"raw": {
									"language": "json"
								}
							}
						},
						"url": {
							"raw": "{{host}}/clients/{{client_one_id}}/accounts",
							"host": [
								"{{host}}"
							],
							"path": [
								"clients",
								"{{client_one_id}}",
								"accounts"
							]
						}
					},
					"response": []
				},
				{
					"name": "Create Account for receiver",
					"event": [
						{
							"listen": "test",
							"script": {
								"id": "fb5c9de8-3a50-4e3c-91e4-34e342a306a8",
								"exec": [
									"pm.test(\"Status code is 200\", function () {",
									"    pm.response.to.have.status(200);",
									"});",
									"",
									"var jsonData = pm.response.json();",
									"pm.environment.set(\"receiver_account_id\", jsonData.id);"
								],
								"type": "text/javascript"
							}
						}
					],
					"request": {
						"method": "POST",
						"header": [
							{
								"key": "Content-Type",
								"name": "Content-Type",
								"value": "application/json",
								"type": "text"
							}
						],
						"body": {
							"mode": "raw",
							"raw": "{\n    \"accountType\": \"SAVINGS\",\n    \"balanceStatus\": \"DEBIT\"\n}",
							"options": {
								"raw": {
									"language": "json"
								}
							}
						},
						"url": {
							"raw": "{{host}}/clients/{{client_two_id}}/accounts",
							"host": [
								"{{host}}"
							],
							"path": [
								"clients",
								"{{client_two_id}}",
								"accounts"
							]
						}
					},
					"response": []
				},
				{
					"name": "Get Sender Accounts",
					"event": [
						{
							"listen": "test",
							"script": {
								"id": "0d3ac312-9907-4da0-8724-e6baf9891aa1",
								"exec": [
									"pm.test(\"Status code is 200\", function () {",
									"    pm.response.to.have.status(200);",
									"});",
									"",
									"pm.test(\"Client list size check\", function () {",
									"    var jsonData = pm.response.json();",
									"    pm.expect(jsonData.length).to.be.above(0);",
									"});"
								],
								"type": "text/javascript"
							}
						}
					],
					"request": {
						"method": "GET",
						"header": [
							{
								"key": "Content-Type",
								"name": "Content-Type",
								"value": "application/json",
								"type": "text"
							}
						],
						"url": {
							"raw": "{{host}}/clients/{{client_one_id}}/accounts",
							"host": [
								"{{host}}"
							],
							"path": [
								"clients",
								"{{client_one_id}}",
								"accounts"
							]
						}
					},
					"response": []
				},
				{
					"name": "Make a transfer",
					"event": [
						{
							"listen": "test",
							"script": {
								"id": "0d3ac312-9907-4da0-8724-e6baf9891aa1",
								"exec": [
									"pm.test(\"Status code is 200\", function () {",
									"    pm.response.to.have.status(200);",
									"});"
								],
								"type": "text/javascript"
							}
						}
					],
					"request": {
						"method": "POST",
						"header": [
							{
								"key": "Content-Type",
								"name": "Content-Type",
								"type": "text",
								"value": "application/json"
							}
						],
						"body": {
							"mode": "raw",
							"raw": "{\n\t\"senderAccountId\": {{sender_account_id}},\n\t\"receiverAccountId\": {{receiver_account_id}},\n\t\"amount\": 5.9999,\n\t\"message\": \"test transfer message\"\n}",
							"options": {
								"raw": {
									"language": "json"
								}
							}
						},
						"url": {
							"raw": "{{host}}/transactions",
							"host": [
								"{{host}}"
							],
							"path": [
								"transactions"
							]
						}
					},
					"response": []
				},
				{
					"name": "Get Transactions",
					"event": [
						{
							"listen": "test",
							"script": {
								"id": "0d3ac312-9907-4da0-8724-e6baf9891aa1",
								"exec": [
									"pm.test(\"Status code is 200\", function () {",
									"    pm.response.to.have.status(200);",
									"});",
									"",
									"pm.test(\"Transactions list size check\", function () {",
									"    var jsonData = pm.response.json();",
									"    pm.expect(jsonData.length).to.be.above(0);",
									"});"
								],
								"type": "text/javascript"
							}
						}
					],
					"request": {
						"method": "GET",
						"header": [
							{
								"key": "Content-Type",
								"name": "Content-Type",
								"value": "application/json",
								"type": "text"
							}
						],
						"url": {
							"raw": "{{host}}/clients/{{client_one_id}}/accounts/{{sender_account_id}}/transactions",
							"host": [
								"{{host}}"
							],
							"path": [
								"clients",
								"{{client_one_id}}",
								"accounts",
								"{{sender_account_id}}",
								"transactions"
							]
						}
					},
					"response": []
				},
				{
					"name": "Check account balance",
					"event": [
						{
							"listen": "test",
							"script": {
								"id": "0d3ac312-9907-4da0-8724-e6baf9891aa1",
								"exec": [
									"pm.test(\"Status code is 200\", function () {",
									"    pm.response.to.have.status(200);",
									"});",
									"",
									"pm.test(\"Sender account balance\", function () {",
									"    var jsonData = pm.response.json();",
									"    pm.expect(jsonData.balance).to.be.eql(5.9999);",
									"    pm.expect(jsonData.balanceStatus).to.be.eql('DEBIT');",
									"});"
								],
								"type": "text/javascript"
							}
						}
					],
					"request": {
						"method": "GET",
						"header": [
							{
								"key": "Content-Type",
								"name": "Content-Type",
								"type": "text",
								"value": "application/json"
							}
						],
						"url": {
							"raw": "{{host}}/clients/{{client_one_id}}/accounts/{{sender_account_id}}",
							"host": [
								"{{host}}"
							],
							"path": [
								"clients",
								"{{client_one_id}}",
								"accounts",
								"{{sender_account_id}}"
							]
						}
					},
					"response": []
				},
				{
					"name": "Check receiver account balance",
					"event": [
						{
							"listen": "test",
							"script": {
								"id": "0d3ac312-9907-4da0-8724-e6baf9891aa1",
								"exec": [
									"pm.test(\"Status code is 200\", function () {",
									"    pm.response.to.have.status(200);",
									"});",
									"",
									"pm.test(\"Sender account balance\", function () {",
									"    var jsonData = pm.response.json();",
									"    pm.expect(jsonData.balance).to.be.eql(5.9999);",
									"    pm.expect(jsonData.balanceStatus).to.be.eql('CREDIT');",
									"});"
								],
								"type": "text/javascript"
							}
						}
					],
					"request": {
						"method": "GET",
						"header": [
							{
								"key": "Content-Type",
								"name": "Content-Type",
								"type": "text",
								"value": "application/json"
							}
						],
						"url": {
							"raw": "{{host}}/clients/{{client_two_id}}/accounts/{{receiver_account_id}}",
							"host": [
								"{{host}}"
							],
							"path": [
								"clients",
								"{{client_two_id}}",
								"accounts",
								"{{receiver_account_id}}"
							]
						}
					},
					"response": []
				},
				{
					"name": "Make second transfer",
					"event": [
						{
							"listen": "test",
							"script": {
								"id": "0d3ac312-9907-4da0-8724-e6baf9891aa1",
								"exec": [
									"pm.test(\"Status code is 200\", function () {",
									"    pm.response.to.have.status(200);",
									"});"
								],
								"type": "text/javascript"
							}
						}
					],
					"request": {
						"method": "POST",
						"header": [
							{
								"key": "Content-Type",
								"name": "Content-Type",
								"type": "text",
								"value": "application/json"
							}
						],
						"body": {
							"mode": "raw",
							"raw": "{\n\t\"senderAccountId\": {{receiver_account_id}},\n\t\"receiverAccountId\": {{sender_account_id}},\n\t\"amount\": 20.6655,\n\t\"message\": \"test transfer message\"\n}",
							"options": {
								"raw": {
									"language": "json"
								}
							}
						},
						"url": {
							"raw": "{{host}}/transactions",
							"host": [
								"{{host}}"
							],
							"path": [
								"transactions"
							]
						}
					},
					"response": []
				},
				{
					"name": "Check balance",
					"event": [
						{
							"listen": "test",
							"script": {
								"id": "0d3ac312-9907-4da0-8724-e6baf9891aa1",
								"exec": [
									"pm.test(\"Status code is 200\", function () {",
									"    pm.response.to.have.status(200);",
									"});",
									"",
									"pm.test(\"Sender account balance\", function () {",
									"    var jsonData = pm.response.json();",
									"    pm.expect(jsonData.balance).to.be.eql(14.6656);",
									"    pm.expect(jsonData.balanceStatus).to.be.eql('DEBIT');",
									"});"
								],
								"type": "text/javascript"
							}
						}
					],
					"request": {
						"method": "GET",
						"header": [
							{
								"key": "Content-Type",
								"name": "Content-Type",
								"type": "text",
								"value": "application/json"
							}
						],
						"url": {
							"raw": "{{host}}/clients/{{client_two_id}}/accounts/{{receiver_account_id}}",
							"host": [
								"{{host}}"
							],
							"path": [
								"clients",
								"{{client_two_id}}",
								"accounts",
								"{{receiver_account_id}}"
							]
						}
					},
					"response": []
				},
				{
					"name": "Create Another account for sender",
					"event": [
						{
							"listen": "test",
							"script": {
								"id": "93862d10-39d8-485b-bd82-430910923274",
								"exec": [
									"pm.test(\"Status code is 200\", function () {",
									"    pm.response.to.have.status(200);",
									"});",
									"",
									"var jsonData = pm.response.json();",
									"pm.environment.set(\"sender_account_id\", jsonData.id);"
								],
								"type": "text/javascript"
							}
						}
					],
					"request": {
						"method": "POST",
						"header": [
							{
								"key": "Content-Type",
								"name": "Content-Type",
								"value": "application/json",
								"type": "text"
							}
						],
						"body": {
							"mode": "raw",
							"raw": "{\n    \"accountType\": \"CURRENT\",\n    \"balanceStatus\": \"DEBIT\"\n}",
							"options": {
								"raw": {
									"language": "json"
								}
							}
						},
						"url": {
							"raw": "{{host}}/clients/{{client_one_id}}/accounts",
							"host": [
								"{{host}}"
							],
							"path": [
								"clients",
								"{{client_one_id}}",
								"accounts"
							]
						}
					},
					"response": []
				},
				{
					"name": "Make third transfer",
					"event": [
						{
							"listen": "test",
							"script": {
								"id": "0d3ac312-9907-4da0-8724-e6baf9891aa1",
								"exec": [
									"pm.test(\"Status code is 200\", function () {",
									"    pm.response.to.have.status(200);",
									"});"
								],
								"type": "text/javascript"
							}
						}
					],
					"request": {
						"method": "POST",
						"header": [
							{
								"key": "Content-Type",
								"name": "Content-Type",
								"type": "text",
								"value": "application/json"
							}
						],
						"body": {
							"mode": "raw",
							"raw": "{\n\t\"senderAccountId\": {{receiver_account_id}},\n\t\"receiverAccountId\": {{sender_account_id}},\n\t\"amount\": 10,\n\t\"message\": \"test transfer message\"\n}",
							"options": {
								"raw": {
									"language": "json"
								}
							}
						},
						"url": {
							"raw": "{{host}}/transactions",
							"host": [
								"{{host}}"
							],
							"path": [
								"transactions"
							]
						}
					},
					"response": []
				},
				{
					"name": "Check account balance",
					"event": [
						{
							"listen": "test",
							"script": {
								"id": "0d3ac312-9907-4da0-8724-e6baf9891aa1",
								"exec": [
									"pm.test(\"Status code is 200\", function () {",
									"    pm.response.to.have.status(200);",
									"});",
									"",
									"pm.test(\"Sender account balance\", function () {",
									"    var jsonData = pm.response.json();",
									"    pm.expect(jsonData.balance).to.be.eql(24.6656);",
									"    pm.expect(jsonData.balanceStatus).to.be.eql('DEBIT');",
									"});"
								],
								"type": "text/javascript"
							}
						}
					],
					"request": {
						"method": "GET",
						"header": [
							{
								"key": "Content-Type",
								"name": "Content-Type",
								"type": "text",
								"value": "application/json"
							}
						],
						"url": {
							"raw": "{{host}}/clients/{{client_two_id}}/accounts/{{receiver_account_id}}",
							"host": [
								"{{host}}"
							],
							"path": [
								"clients",
								"{{client_two_id}}",
								"accounts",
								"{{receiver_account_id}}"
							]
						}
					},
					"response": []
				}
			],
			"protocolProfileBehavior": {}
		}
	],
	"event": [
		{
			"listen": "prerequest",
			"script": {
				"id": "28ae2f09-6b33-43ac-b9c0-15fc332f7dd3",
				"type": "text/javascript",
				"exec": [
					""
				]
			}
		},
		{
			"listen": "test",
			"script": {
				"id": "76f859a0-d25c-440b-951c-77eed527776d",
				"type": "text/javascript",
				"exec": [
					""
				]
			}
		}
	],
	"protocolProfileBehavior": {}
}